…
``` r
get_topic()
## # A tibble: 40 x 11
##    title description traffic link  pub_date picture picture_source news_item_title news_item_snipp… news_item_url
##    <chr> <chr>       <chr>   <chr> <chr>    <chr>   <chr>          <chr>           <chr>            <chr>        
##  1 Juss… Empire      500,00… http… Tue, 29… https:… USA TODAY      'Empire' star … "\"Empire\" sta… https://www.…
##  2 Juss… Empire      500,00… http… Tue, 29… https:… USA TODAY      'Empire' star … "\"Empire\" act… https://www.…
##  3 Face… FaceTime, … 200,00… http… Tue, 29… https:… USA TODAY      A 14-year-old … Apple's Group F… https://www.…
##  4 Face… FaceTime, … 200,00… http… Tue, 29… https:… USA TODAY      Apple Takes Dr… But a bug affli… https://www.…
##  5 Bryc… ""          100,00… http… Tue, 29… https:… For The Win    Fans think an … The Major Leagu… https://ftw.…
##  6 Bryc… ""          100,00… http… Tue, 29… https:… For The Win    Report: Bryce … The Bryce Harpe… https://ftw.…
##  7 Jame… ""          100,00… http… Tue, 29… https:… The Root       Grammy-Winning… The music indus… https://theg…
##  8 Jame… ""          100,00… http… Tue, 29… https:… The Root       R&B Star James… James Ingram, o… https://theg…
##  9 Tory… Don Q       50,000+ http… Tue, 29… https:… Complex        "Don Q Goes in… "Late Monday, Q… https://www.…
## 10 Tory… Don Q       50,000+ http… Tue, 29… https:… Complex        JID Accepts To… "After unleashi… https://www.…
## # … with 30 more rows, and 1 more variable: news_item_source <chr>
```
…
